MSigDF: Molecular Signature Database (MSigDB) in a Data Frame
…
There are three data frames this package. The msigdf.human data frame has columns for each MSigDB collection (c1-7 and hallmark), each gene set, and Entrez ID, where each row is a single Entrez gene ID. The msigdf.mouse data frame has the same structure for mouse orthologs. The msigdf.urls data frame links the name of the gene set to the URL on the Broad’s website.

The data sets in this package have several million rows. Having dplyr loaded will print them nicely as tbl_dfs.

library(plyr)
library(dplyr)
library(tidyr)
library(msigdf)

Take a look:

msigdf.human

## # A tibble: 1,881,999 x 3
##    collection geneset    entrez
##         <chr>   <chr>     <int>
## 1          c1 chr5q23      5759
## 2          c1 chr5q23     94033
## 3          c1 chr5q23     51334
## 4          c1 chr5q23    153163
## 5          c1 chr5q23    133615
## 6          c1 chr5q23    402229
## 7          c1 chr5q23      6219
## 8          c1 chr5q23 100505841
## 9          c1 chr5q23    115123
## 10         c1 chr5q23      2878
## # ... with 1,881,989 more rows

msigdf.mouse

## # A tibble: 3,389,316 x 3
##    collection geneset    entrez
##         <chr>   <chr>     <int>
## 1          c1 chr5q23 100042150
## 2          c1 chr5q23    103236
## 3          c1 chr5q23    106869
## 4          c1 chr5q23    107022
## 5          c1 chr5q23    109700
## 6          c1 chr5q23     11548
## 7          c1 chr5q23     12328
## 8          c1 chr5q23     12583
## 9          c1 chr5q23     12981
## 10         c1 chr5q23     13653
## # ... with 3,389,306 more rows
…
Look at the first few gene sets just in the 50-geneset hallmark collection. In each gene set, the number of mouse genes is greater than the number of human genes.

msigdf %>%
  count(org, collection, geneset) %>%
  filter(collection=="hallmark") %>%
  spread(org, n)

## Source: local data frame [50 x 4]
## Groups: collection [1]
## 
##    collection                          geneset human mouse
## *       <chr>                            <chr> <int> <int>
## 1    hallmark            HALLMARK_ADIPOGENESIS   200   390
## 2    hallmark     HALLMARK_ALLOGRAFT_REJECTION   200   367
## 3    hallmark       HALLMARK_ANDROGEN_RESPONSE   101   221
## 4    hallmark            HALLMARK_ANGIOGENESIS    36    66
## 5    hallmark         HALLMARK_APICAL_JUNCTION   200   366
## 6    hallmark          HALLMARK_APICAL_SURFACE    44    92
## 7    hallmark               HALLMARK_APOPTOSIS   161   231
## 8    hallmark    HALLMARK_BILE_ACID_METABOLISM   112   238
## 9    hallmark HALLMARK_CHOLESTEROL_HOMEOSTASIS    74   121
## 10   hallmark             HALLMARK_COAGULATION   138   266
## # ... with 40 more rows
…
## [1] "http://www.broadinstitute.org/gsea/msigdb/cards/HALLMARK_NOTCH_SIGNALING"

Just look at the number of genes in each KEGG pathway (sorted descending by the number of genes in that pathway):

msigdf.human %>%
  filter(collection=="c2" & grepl("^KEGG_", geneset)) %>%
  count(geneset) %>% 
  arrange(desc(n))

## # A tibble: 186 x 2
##                                         geneset     n
##                                           <chr> <int>
## 1                   KEGG_OLFACTORY_TRANSDUCTION   389
## 2                       KEGG_PATHWAYS_IN_CANCER   328
## 3  KEGG_NEUROACTIVE_LIGAND_RECEPTOR_INTERACTION   272
## 4   KEGG_CYTOKINE_CYTOKINE_RECEPTOR_INTERACTION   267
## 5                   KEGG_MAPK_SIGNALING_PATHWAY   267
## 6         KEGG_REGULATION_OF_ACTIN_CYTOSKELETON   216
## 7                           KEGG_FOCAL_ADHESION   201
## 8              KEGG_CHEMOKINE_SIGNALING_PATHWAY   190
## 9                      KEGG_HUNTINGTONS_DISEASE   185
## 10                             KEGG_ENDOCYTOSIS   183
## # ... with 176 more rows
